{
  "log": {
    "_recordingName": "<ListPage/>/waits for data load",
    "creator": {
      "comment": "persister:fs",
      "name": "Polly.JS",
      "version": "2.3.0"
    },
    "entries": [
      {
        "_id": "c470b1d547c0d5819eb58cedaa59a9eb",
        "_order": 0,
        "cache": {},
        "request": {
          "bodySize": 0,
          "cookies": [],
          "headers": [
            {
              "name": "accept",
              "value": "application/json, text/plain, */*"
            },
            {
              "name": "content-type",
              "value": "text/plain;charset=utf-8"
            }
          ],
          "headersSize": 127,
          "httpVersion": "HTTP/1.1",
          "method": "GET",
          "queryString": [],
          "url": "https://reqres.in/api/users"
        },
        "response": {
          "bodySize": 443,
          "content": {
            "mimeType": "application/json; charset=utf-8",
            "size": 443,
            "text": "{\"page\":1,\"per_page\":3,\"total\":12,\"total_pages\":4,\"data\":[{\"id\":1,\"first_name\":\"George\",\"last_name\":\"Bluth\",\"avatar\":\"https://s3.amazonaws.com/uifaces/faces/twitter/calebogden/128.jpg\"},{\"id\":2,\"first_name\":\"Janet\",\"last_name\":\"Weaver\",\"avatar\":\"https://s3.amazonaws.com/uifaces/faces/twitter/josephstein/128.jpg\"},{\"id\":3,\"first_name\":\"Emma\",\"last_name\":\"Wong\",\"avatar\":\"https://s3.amazonaws.com/uifaces/faces/twitter/olegpogodaev/128.jpg\"}]}"
          },
          "cookies": [],
          "headers": [
            {
              "name": "content-type",
              "value": "application/json; charset=utf-8"
            }
          ],
          "headersSize": 49,
          "httpVersion": "HTTP/1.1",
          "redirectURL": "",
          "status": 200,
          "statusText": "OK"
        },
        "startedDateTime": "2019-03-20T14:02:32.920Z",
        "time": 666,
        "timings": {
          "blocked": -1,
          "connect": -1,
          "dns": -1,
          "receive": 0,
          "send": 0,
          "ssl": -1,
          "wait": 666
        }
      }
    ],
    "pages": [],
    "version": "1.2"
  }
}
